…
With `ReadMPX_item`, we can chose a specific item to load from the PXL
file, including: “polarization”, “colocalization”, “edgelist”.

``` r
polarization_scores <- ReadMPX_item(pxl_file, items = "polarization")
```

    ## ! Failed to remove temporary dir C:/Users/max/AppData/Local/Temp/RtmpCW6qSQ/dir5ce46d833fb0

``` r
polarization_scores
```

    ## # A tibble: 33,479 × 6
    ##     morans_i morans_p_value morans_p_adjusted morans_z marker component    
    ##        <dbl>          <dbl>             <dbl>    <dbl> <chr>  <chr>        
    ##  1 -0.00299          0.772              1.000  -0.290  ACTB   RCVCMP0000830
    ##  2 -0.0161           0.177              0.771  -1.35   B2M    RCVCMP0000830
    ##  3  0.0147           0.125              0.633   1.53   CD102  RCVCMP0000830
    ##  4 -0.00678          0.590              1.000  -0.539  CD11a  RCVCMP0000830
    ##  5  0.000836         0.891              1.000   0.137  CD127  RCVCMP0000830
    ##  6 -0.00132          0.145              0.693  -1.46   CD150  RCVCMP0000830
    ##  7 -0.00103          0.395              1.000  -0.851  CD152  RCVCMP0000830
    ##  8 -0.00162          0.0365             0.265  -2.09   CD154  RCVCMP0000830
    ##  9 -0.000919         0.971              1.000  -0.0364 CD162  RCVCMP0000830
    ## 10 -0.000345         0.561              1.000   0.582  CD163  RCVCMP0000830
    ## # ℹ 33,469 more rows
…
`FSMap` returns a tibble with the paths to the PXL files associated with
the `Seurat` object. In this case, there is only one PXL file. The
“id_map” column is a list, where each element consists of a tibble with
component IDs that can be used as a look up table to map the “current”
component IDs with the “original” component IDs. If we unnest the
“id_map” column, we can see the current and original component IDs:

``` r
FSMap(seur_obj[["mpxCells"]]) %>% 
  tidyr::unnest(id_map)
```

    ## # A tibble: 477 × 4
    ##    current_id    original_id   sample pxl_file                                  
    ##    <chr>         <chr>          <int> <chr>                                     
    ##  1 RCVCMP0000000 RCVCMP0000000      1 PBMC_data/Sample01_human_pbmcs_unstimulat…
    ##  2 RCVCMP0000002 RCVCMP0000002      1 PBMC_data/Sample01_human_pbmcs_unstimulat…
    ##  3 RCVCMP0000003 RCVCMP0000003      1 PBMC_data/Sample01_human_pbmcs_unstimulat…
    ##  4 RCVCMP0000005 RCVCMP0000005      1 PBMC_data/Sample01_human_pbmcs_unstimulat…
    ##  5 RCVCMP0000006 RCVCMP0000006      1 PBMC_data/Sample01_human_pbmcs_unstimulat…
    ##  6 RCVCMP0000007 RCVCMP0000007      1 PBMC_data/Sample01_human_pbmcs_unstimulat…
    ##  7 RCVCMP0000008 RCVCMP0000008      1 PBMC_data/Sample01_human_pbmcs_unstimulat…
    ##  8 RCVCMP0000010 RCVCMP0000010      1 PBMC_data/Sample01_human_pbmcs_unstimulat…
    ##  9 RCVCMP0000012 RCVCMP0000012      1 PBMC_data/Sample01_human_pbmcs_unstimulat…
    ## 10 RCVCMP0000013 RCVCMP0000013      1 PBMC_data/Sample01_human_pbmcs_unstimulat…
    ## # ℹ 467 more rows

If we were to rename the component IDs of the Seurat object, the
“current_id” column will be updated, but the “original_id” column will
remain unchanged:

``` r
seur_obj_renamed <- RenameCells(seur_obj, new.names = paste0("A_", colnames(seur_obj)))

FSMap(seur_obj_renamed[["mpxCells"]]) %>% 
  tidyr::unnest(id_map)
```

    ## # A tibble: 477 × 4
    ##    current_id      original_id   sample pxl_file                                
    ##    <chr>           <chr>          <int> <chr>                                   
    ##  1 A_RCVCMP0000000 RCVCMP0000000      1 PBMC_data/Sample01_human_pbmcs_unstimul…
    ##  2 A_RCVCMP0000002 RCVCMP0000002      1 PBMC_data/Sample01_human_pbmcs_unstimul…
    ##  3 A_RCVCMP0000003 RCVCMP0000003      1 PBMC_data/Sample01_human_pbmcs_unstimul…
    ##  4 A_RCVCMP0000005 RCVCMP0000005      1 PBMC_data/Sample01_human_pbmcs_unstimul…
    ##  5 A_RCVCMP0000006 RCVCMP0000006      1 PBMC_data/Sample01_human_pbmcs_unstimul…
    ##  6 A_RCVCMP0000007 RCVCMP0000007      1 PBMC_data/Sample01_human_pbmcs_unstimul…
    ##  7 A_RCVCMP0000008 RCVCMP0000008      1 PBMC_data/Sample01_human_pbmcs_unstimul…
    ##  8 A_RCVCMP0000010 RCVCMP0000010      1 PBMC_data/Sample01_human_pbmcs_unstimul…
    ##  9 A_RCVCMP0000012 RCVCMP0000012      1 PBMC_data/Sample01_human_pbmcs_unstimul…
    ## 10 A_RCVCMP0000013 RCVCMP0000013      1 PBMC_data/Sample01_human_pbmcs_unstimul…
    ## # ℹ 467 more rows
…
