Load data • pixelatorR
…
##       RCVCMP0000000 RCVCMP0000002 RCVCMP0000003 RCVCMP0000005 RCVCMP0000006
## CD274            62            11            25            31            16
## CD44            553           180            66           347           213
## CD25             12             7             6             8             5
## CD279             4             2             0             8             2
## CD41              6             1             3             5             6

With ReadMPX_item, we can chose a specific item to load
from the pxl file, including: “polarization”,
“colocalization”, “edgelist”.

polarization_scores <- ReadMPX_item(pxl_file, items = "polarization")
polarization_scores

## # A tibble: 33,479 × 6
##     morans_i morans_p_value morans_p_adjusted morans_z marker component    
##        <dbl>          <dbl>             <dbl>    <dbl> <chr>  <chr>        
##  1 -0.00299          0.772              1.00   -0.290  ACTB   RCVCMP0000830
##  2 -0.0161           0.177              0.771  -1.35   B2M    RCVCMP0000830
##  3  0.0147           0.125              0.633   1.53   CD102  RCVCMP0000830
##  4 -0.00678          0.590              1.00   -0.539  CD11a  RCVCMP0000830
##  5  0.000836         0.891              1.00    0.137  CD127  RCVCMP0000830
##  6 -0.00132          0.145              0.693  -1.46   CD150  RCVCMP0000830
##  7 -0.00103          0.395              1.00   -0.851  CD152  RCVCMP0000830
##  8 -0.00162          0.0365             0.265  -2.09   CD154  RCVCMP0000830
##  9 -0.000919         0.971              1.00   -0.0364 CD162  RCVCMP0000830
## 10 -0.000345         0.561              1.00    0.582  CD163  RCVCMP0000830
## # ℹ 33,469 more rows
…
