Plot a colocalization heatmap — ColocalizationHeatmap • pixelatorR
…
library(pixelatorR)
library(dplyr)
library(ggplot2)

# Create a table with artificial DCA results
# for the example
set.seed(123)
dca_markers <- tidyr::expand_grid(
  marker_1 = paste0("M", 1:10),
  marker_2 = paste0("M", 1:10)
) %>%
  filter(marker_1 > marker_2) %>%
  mutate(estimate = rnorm(n(), 0, 1), p_adj = 10^(-rnorm(n(), 3, 2)))
dca_markers
#> # A tibble: 45 × 4
#>    marker_1 marker_2 estimate      p_adj
#>    <chr>    <chr>       <dbl>      <dbl>
#>  1 M2       M1        -0.560  0.176     
#>  2 M2       M10       -0.230  0.00639   
#>  3 M3       M1         1.56   0.00858   
#>  4 M3       M2         0.0705 0.0000275 
#>  5 M3       M10        0.129  0.00147   
#>  6 M4       M1         1.72   0.000311  
#>  7 M4       M2         0.461  0.00114   
#>  8 M4       M3        -1.27   0.00122   
#>  9 M4       M10       -0.687  0.00000183
#> 10 M5       M1        -0.446  0.00283   
#> # ℹ 35 more rows
…
# If there are multiple comparisons per marker pair, we need to subset
# the data first
dca_markers_two_tests <- bind_rows(
  dca_markers %>% mutate(refrence = "ctrl", target = "stim1"),
  dca_markers %>% mutate(refrence = "ctrl", target = "stim2")
)
dca_markers_two_tests
#> # A tibble: 90 × 6
#>    marker_1 marker_2 estimate      p_adj refrence target
#>    <chr>    <chr>       <dbl>      <dbl> <chr>    <chr> 
#>  1 M2       M1        -0.560  0.176      ctrl     stim1 
#>  2 M2       M10       -0.230  0.00639    ctrl     stim1 
#>  3 M3       M1         1.56   0.00858    ctrl     stim1 
#>  4 M3       M2         0.0705 0.0000275  ctrl     stim1 
#>  5 M3       M10        0.129  0.00147    ctrl     stim1 
#>  6 M4       M1         1.72   0.000311   ctrl     stim1 
#>  7 M4       M2         0.461  0.00114    ctrl     stim1 
#>  8 M4       M3        -1.27   0.00122    ctrl     stim1 
#>  9 M4       M10       -0.687  0.00000183 ctrl     stim1 
#> 10 M5       M1        -0.446  0.00283    ctrl     stim1 
#> # ℹ 80 more rows
…
