Compute proximity scores — ComputeProximityScores • pixelatorR
…
    Examples

library(dplyr)
cg <- ReadPNA_Seurat(minimal_pna_pxl_file()) %>%
  LoadCellGraphs(cells = colnames(.)[1], verbose = FALSE) %>%
  CellGraphs() %>%
  .[[1]]
#> ✔ Created a <Seurat> object with 5 cells and 158 targeted surface proteins

ComputeProximityScores(cg) %>%
  filter(join_count_z > 3)
#> # A tibble: 167 × 7
#>    join_count join_count_expected_mean join_count_expected_sd marker_1 marker_2
#>         <dbl>                    <dbl>                  <dbl> <chr>    <chr>   
#>  1         74                   48.3                    5.46  CD371    CD371   
#>  2         41                   26.7                    3.96  CD18     CD18    
#>  3          8                    1.85                   0.984 CD156c   CD156c  
#>  4      11204                10197.                   103.    CD59     CD59    
#>  5          4                    0.830                  0.654 Siglec-9 Siglec-9
#>  6          6                    1.33                   0.830 CD162    CD50    
#>  7         12                    3.09                   1.27  CD50     Siglec-9
#>  8          8                    2.88                   1.24  CD50     CD50    
#>  9          6                    1.63                   0.918 CD156c   CD47    
#> 10         10                    3.50                   1.36  CD43     Siglec-9
#> # ℹ 157 more rows
#> # ℹ 2 more variables: join_count_z <dbl>, log2_ratio <dbl>
…
