Approximate nearest neighbors using Annoy — FindAnnoyNeighbors • pixelatorR
…
index: The index of the cell in the Annoy index

item: The index of the nearest neighbor

distance: The distance (Euclidean by default) to the nearest neighbor

nn: The rank of the nearest neighbor

neighbor: The name of the nearest neighbor

    Examples

x <- matrix(rnorm(1000), ncol = 10)
FindAnnoyNeighbors(x, n_trees = 50, n_nn = 10)
#> # A tibble: 1,000 × 6
#>    id    index  item distance    nn neighbor
#>    <chr> <dbl> <int>    <dbl> <int> <chr>   
#>  1 1         0     0     0        1 1       
#>  2 1         0    12     2.51     2 13      
#>  3 1         0    44     2.77     3 45      
#>  4 1         0    29     2.77     4 30      
#>  5 1         0     8     2.82     5 9       
#>  6 1         0    47     2.99     6 48      
#>  7 1         0    22     3.11     7 23      
#>  8 1         0    24     3.16     8 25      
#>  9 1         0    40     3.26     9 41      
#> 10 1         0    31     3.35    10 32      
#> # ℹ 990 more rows
…
