…
Other spatial metrics:
[`ColocalizationScores()`](ColocalizationScores.md),
[`Edgelists()`](Edgelists.md),
[`PolarizationScores()`](PolarizationScores.md)

## Examples

``` r
library(pixelatorR)
library(dplyr)

pxl_file <- minimal_pna_pxl_file()
seur_obj <- ReadPNA_Seurat(pxl_file)
ProximityScores(seur_obj[["PNA"]])
#> # A tibble: 58,696 × 9
#>    marker_1 marker_2 join_count join_count_expected_mean join_count_expected_sd
#>    <chr>    <chr>         <dbl>                    <dbl>                  <dbl>
#>  1 CD56     CD56              0                     0                     0    
#>  2 CD56     mIgG2b            0                     0.03                  0.171
#>  3 CD56     CD71              0                     0.01                  0.1  
#>  4 CD56     CD6               0                     2.07                  1.58 
#>  5 CD56     Siglec-9          0                     0.03                  0.171
#>  6 CD56     CD79a             0                     0                     0    
#>  7 CD56     NKp80             0                     0                     0    
#>  8 CD56     CD85j             0                     0.17                  0.378
#>  9 CD56     IgM               0                     0.08                  0.307
#> 10 CD56     TCRva7.2          0                     0.01                  0.1  
#> # ℹ 58,686 more rows
#> # ℹ 4 more variables: join_count_z <dbl>, join_count_p <dbl>, component <chr>,
#> #   log2_ratio <dbl>
# Set proximity scores
ProximityScores(seur_obj[["PNA"]]) <-
  ProximityScores(seur_obj[["PNA"]]) %>%
  mutate(ratio = join_count / join_count_expected_mean)

library(pixelatorR)

# Create example Seurat object
pxl_file <- minimal_pna_pxl_file()
seur_obj <- ReadPNA_Seurat(pxl_file)

# Get proximity scores
proximity <- ProximityScores(seur_obj)
proximity
#> # A tibble: 58,696 × 9
#>    marker_1 marker_2 join_count join_count_expected_mean join_count_expected_sd
#>    <chr>    <chr>         <dbl>                    <dbl>                  <dbl>
#>  1 CD56     CD56              0                     0                     0    
#>  2 CD56     mIgG2b            0                     0.03                  0.171
#>  3 CD56     CD71              0                     0.01                  0.1  
#>  4 CD56     CD6               0                     2.07                  1.58 
#>  5 CD56     Siglec-9          0                     0.03                  0.171
#>  6 CD56     CD79a             0                     0                     0    
#>  7 CD56     NKp80             0                     0                     0    
#>  8 CD56     CD85j             0                     0.17                  0.378
#>  9 CD56     IgM               0                     0.08                  0.307
#> 10 CD56     TCRva7.2          0                     0.01                  0.1  
#> # ℹ 58,686 more rows
#> # ℹ 4 more variables: join_count_z <dbl>, join_count_p <dbl>, component <chr>,
#> #   log2_ratio <dbl>

# Get proximity scores with additional meta data
proximity <-
  ProximityScores(seur_obj, meta_data_columns = c("n_umi", "n_edges"))
proximity
#> # A tibble: 58,696 × 11
#>    marker_1 marker_2 join_count join_count_expected_mean join_count_expected_sd
#>    <chr>    <chr>         <dbl>                    <dbl>                  <dbl>
#>  1 CD56     CD56              0                     0                     0    
#>  2 CD56     mIgG2b            0                     0.03                  0.171
#>  3 CD56     CD71              0                     0.01                  0.1  
#>  4 CD56     CD6               0                     2.07                  1.58 
#>  5 CD56     Siglec-9          0                     0.03                  0.171
#>  6 CD56     CD79a             0                     0                     0    
#>  7 CD56     NKp80             0                     0                     0    
#>  8 CD56     CD85j             0                     0.17                  0.378
#>  9 CD56     IgM               0                     0.08                  0.307
#> 10 CD56     TCRva7.2          0                     0.01                  0.1  
#> # ℹ 58,686 more rows
#> # ℹ 6 more variables: join_count_z <dbl>, join_count_p <dbl>, component <chr>,
#> #   log2_ratio <dbl>, n_umi <int>, n_edges <int>

# Get proximity scores with marker_1 and marker_2 counts
proximity <-
  ProximityScores(seur_obj, add_marker_counts = TRUE)
proximity
#> # A tibble: 58,696 × 11
#>    marker_1 marker_2 join_count join_count_expected_mean join_count_expected_sd
#>    <chr>    <chr>         <dbl>                    <dbl>                  <dbl>
#>  1 CD56     CD56              0                     0                     0    
#>  2 CD56     mIgG2b            0                     0.03                  0.171
#>  3 CD56     CD71              0                     0.01                  0.1  
#>  4 CD56     CD6               0                     2.07                  1.58 
#>  5 CD56     Siglec-9          0                     0.03                  0.171
#>  6 CD56     CD79a             0                     0                     0    
#>  7 CD56     NKp80             0                     0                     0    
#>  8 CD56     CD85j             0                     0.17                  0.378
#>  9 CD56     IgM               0                     0.08                  0.307
#> 10 CD56     TCRva7.2          0                     0.01                  0.1  
#> # ℹ 58,686 more rows
#> # ℹ 6 more variables: join_count_z <dbl>, join_count_p <dbl>, component <chr>,
#> #   log2_ratio <dbl>, count_1 <int>, count_2 <int>
…
