Differential analysis (abundance) — RunDAA • pixelatorR
…
daa_markers <- RunDAA(se,
  contrast_column = "sample",
  targets = "T", reference = "C"
)
#> For a (much!) faster implementation of the Wilcoxon Rank Sum Test,
#> (default method for FindMarkers) please install the presto package
#> --------------------------------------------
#> install.packages('devtools')
#> devtools::install_github('immunogenomics/presto')
#> --------------------------------------------
#> After installation of presto, Seurat will automatically use the more 
#> efficient implementation (no further action necessary).
#> This message will be shown once per session
daa_markers
#> # A tibble: 80 × 8
#>    marker           p     p_adj difference pct_1 pct_2 target reference
#>    <chr>        <dbl>     <dbl>      <dbl> <dbl> <dbl> <chr>  <chr>    
#>  1 CD137  0.000000407 0.0000326     0.0568     1  0.5  T      C        
#>  2 CD62P  0.000000792 0.0000633    -0.130      0  1    T      C        
#>  3 CD11b  0.000000792 0.0000633     0.0400     1  0.75 T      C        
#>  4 CD152  0.000000792 0.0000633     0.218      1  0.75 T      C        
#>  5 CD163  0.000000792 0.0000633     0.0641     1  0.75 T      C        
#>  6 CD200  0.000000792 0.0000633     0.236      1  0.75 T      C        
#>  7 CD154  0.000000792 0.0000633     0.111      1  0.75 T      C        
#>  8 CD328  0.000000792 0.0000633     0.161      1  0.75 T      C        
#>  9 CD158  0.000000792 0.0000633     0.215      1  0.75 T      C        
#> 10 CD279  0.000000792 0.0000633     0.843      1  1    T      C        
#> # ℹ 70 more rows
…
