Differential analysis (polarity) — RunDPA • pixelatorR
…
#>   cannot compute exact confidence intervals with ties
#> Warning: Got the following message when running wilcox.test test for marker 'HLA-ABC': Sample1 vs Sample2
#>   cannot compute exact confidence intervals with ties
#> Warning: Got the following message when running wilcox.test test for marker 'HLA-DR': Sample1 vs Sample2
#>   cannot compute exact confidence intervals with ties
#> Warning: Got the following message when running wilcox.test test for marker 'TCRb': Sample1 vs Sample2
#>   cannot compute exact confidence intervals with ties
#> Warning: Got the following message when running wilcox.test test for marker 'mIgG1': Sample1 vs Sample2
#>   cannot compute exact confidence intervals with ties
#> Warning: Got the following message when running wilcox.test test for marker 'mIgG2a': Sample1 vs Sample2
#>   cannot compute exact confidence intervals with ties
#> Warning: Got the following message when running wilcox.test test for marker 'mIgG2b': Sample1 vs Sample2
#>   cannot compute exact confidence intervals with ties
dpa_markers
#> # A tibble: 80 × 14
#>      estimate data_type target  reference    n1    n2 statistic     p p_adj
#>         <dbl> <chr>     <chr>   <chr>     <int> <int>     <dbl> <dbl> <dbl>
#>  1  0         morans_z  Sample1 Sample2       4     4       8       1     1
#>  2  0         morans_z  Sample1 Sample2       5     5      12.5     1     1
#>  3  0         morans_z  Sample1 Sample2       5     5      12.5     1     1
#>  4 -0.0000610 morans_z  Sample1 Sample2       5     5      12.5     1     1
#>  5  0         morans_z  Sample1 Sample2       4     4       8       1     1
#>  6  0         morans_z  Sample1 Sample2       5     5      12.5     1     1
#>  7  0.0000256 morans_z  Sample1 Sample2       5     5      12.5     1     1
#>  8  0         morans_z  Sample1 Sample2       3     3       4.5     1     1
#>  9  0         morans_z  Sample1 Sample2       5     5      12.5     1     1
#> 10  0.0000178 morans_z  Sample1 Sample2       5     5      12.5     1     1
#> # ℹ 70 more rows
#> # ℹ 5 more variables: conf.low <dbl>, conf.high <dbl>, method <chr>,
#> #   alternative <chr>, marker <chr>
…
#>   cannot compute exact confidence intervals with ties
#> Warning: Got the following message when running wilcox.test test for marker 'HLA-ABC': Sample1 vs Sample2
#>   cannot compute exact confidence intervals with ties
#> Warning: Got the following message when running wilcox.test test for marker 'HLA-DR': Sample1 vs Sample2
#>   cannot compute exact confidence intervals with ties
#> Warning: Got the following message when running wilcox.test test for marker 'TCRb': Sample1 vs Sample2
#>   cannot compute exact confidence intervals with ties
#> Warning: Got the following message when running wilcox.test test for marker 'mIgG1': Sample1 vs Sample2
#>   cannot compute exact confidence intervals with ties
#> Warning: Got the following message when running wilcox.test test for marker 'mIgG2a': Sample1 vs Sample2
#>   cannot compute exact confidence intervals with ties
#> Warning: Got the following message when running wilcox.test test for marker 'mIgG2b': Sample1 vs Sample2
#>   cannot compute exact confidence intervals with ties
dpa_markers
#> # A tibble: 80 × 14
#>      estimate data_type target  reference    n1    n2 statistic     p p_adj
#>         <dbl> <chr>     <chr>   <chr>     <int> <int>     <dbl> <dbl> <dbl>
#>  1  0         morans_z  Sample1 Sample2       4     4       8       1     1
#>  2  0         morans_z  Sample1 Sample2       5     5      12.5     1     1
#>  3  0         morans_z  Sample1 Sample2       5     5      12.5     1     1
#>  4 -0.0000610 morans_z  Sample1 Sample2       5     5      12.5     1     1
#>  5  0         morans_z  Sample1 Sample2       4     4       8       1     1
#>  6  0         morans_z  Sample1 Sample2       5     5      12.5     1     1
#>  7  0.0000256 morans_z  Sample1 Sample2       5     5      12.5     1     1
#>  8  0         morans_z  Sample1 Sample2       3     3       4.5     1     1
#>  9  0         morans_z  Sample1 Sample2       5     5      12.5     1     1
#> 10  0.0000178 morans_z  Sample1 Sample2       5     5      12.5     1     1
#> # ℹ 70 more rows
#> # ℹ 5 more variables: conf.low <dbl>, conf.high <dbl>, method <chr>,
#> #   alternative <chr>, marker <chr>
…
