Summarize proximity scores — SummarizeProximityScores • pixelatorR
…
# Return lists which can be used to compute custom summary statistics
SummarizeProximityScores(proximity_table, detailed = TRUE) %>%
  # It's important to do rowwise computations
  rowwise() %>%
  mutate(
    sd = sd(unlist(log2_ratio_list)),
    iqr = IQR(unlist(log2_ratio_list)),
    mad = mad(unlist(log2_ratio_list)),
    q90 = quantile(unlist(log2_ratio_list), 0.9)
  ) %>%
  select(marker_1, marker_2, sd, iqr, mad, q90) %>%
  ungroup()
#> # A tibble: 12,561 × 6
#>    marker_1 marker_2    sd   iqr   mad   q90
#>    <chr>    <chr>    <dbl> <dbl> <dbl> <dbl>
#>  1 CD56     NKp80    0     0     0     0    
#>  2 CD56     HLA-DQ   0     0     0     0    
#>  3 CD56     CD90     0     0     0     0    
#>  4 CD56     CD58     0     0     0     0    
#>  5 CD366    mIgG1    0     0     0     0    
#>  6 CD366    CD45RO   0     0     0     0    
#>  7 CD52     CD71     0.537 0.299 0.443 0.600
#>  8 CD52     CD59     0.458 0.608 0.684 0.887
#>  9 CD52     CX3CR1   1.35  0.669 0     0    
#> 10 CD37     CD37     0.917 0     0     1.23 
#> # ℹ 12,551 more rows
…
