…
# Return lists which can be used to compute custom summary statistics
SummarizeProximityScores(proximity_table, detailed = TRUE) %>%
  # It's important to do rowwise computations
  rowwise() %>%
  mutate(
    sd = sd(unlist(log2_ratio_list)),
    iqr = IQR(unlist(log2_ratio_list)),
    mad = mad(unlist(log2_ratio_list)),
    q90 = quantile(unlist(log2_ratio_list), 0.9)
  ) %>%
  select(marker_1, marker_2, sd, iqr, mad, q90) %>%
  ungroup()
#> # A tibble: 12,561 × 6
#>    marker_1 marker_2    sd   iqr   mad   q90
#>    <chr>    <chr>    <dbl> <dbl> <dbl> <dbl>
#>  1 CD56     HLA-ABC  0.790 1.13  0     0    
#>  2 CD56     IgD      0     0     0     0    
#>  3 CD56     CD9      0.447 0     0     0.600
#>  4 CD366    CD37     0.447 0     0     0.600
#>  5 CD366    IgM      0     0     0     0    
#>  6 CD366    TCRva7.2 0     0     0     0    
#>  7 CD366    KLRG1    0     0     0     0    
#>  8 CD366    CD5      1.60  0     0     0.937
#>  9 CD366    CD62P    0     0     0     0    
#> 10 CD52     CD52     0.592 0.495 0.461 1.28 
#> # ℹ 12,551 more rows
```
